game.vcd
$date
	Mon Feb 09 02:14:31 2026
$end
$version
	Icarus Verilog
$end
$timescale
	1ps
$end
$scope module testbench_game_runner $end
$var wire 4 ! yellow_light [3:0] $end
$var wire 4 " red_light [3:0] $end
$var wire 8 # efficiency_score [7:0] $end
$var wire 8 $ debug_led [7:0] $end
$var wire 4 % barrier_down [3:0] $end
$var wire 4 & alarm_sound [3:0] $end
$var reg 1 ' clk $end
$var reg 1 ( emergency_global $end
$var reg 4 ) ir_sensor [3:0] $end
$var reg 4 * rfid_valid [3:0] $end
$var reg 1 + rst_n $end
$var reg 4 , vib_sensor [3:0] $end
$var reg 2 - weather_mode [1:0] $end
$scope module uut $end
$var wire 1 ' clk_50mhz $end
$var wire 8 . efficiency_score_out [7:0] $end
$var wire 1 ( emergency_global $end
$var wire 4 / ir_sensor [3:0] $end
$var wire 4 0 rfid_valid [3:0] $end
$var wire 1 + rst_n $end
$var wire 4 1 sensor_health [3:0] $end
$var wire 4 2 vib_sensor [3:0] $end
$var wire 2 3 weather_mode [1:0] $end
$var wire 4 4 yellow_light [3:0] $end
$var wire 4 5 train_exit_fused [3:0] $end
$var wire 4 6 train_detected_fused [3:0] $end
$var wire 32 7 total_delay [31:0] $end
$var wire 32 8 safety_violations [31:0] $end
$var wire 4 9 red_light [3:0] $end
$var wire 8 : debug_led [7:0] $end
$var wire 8 ; current_efficiency [7:0] $end
$var wire 4 < barrier_down [3:0] $end
$var wire 4 = alarm_sound [3:0] $end
$scope module main_ctrl $end
$var wire 4 > barrier_faults [3:0] $end
$var wire 1 ' clk $end
$var wire 1 ( emergency_global $end
$var wire 4 ? light_faults [3:0] $end
$var wire 1 + rst_n $end
$var wire 4 @ sensor_health [3:0] $end
$var wire 2 A weather_mode [1:0] $end
$var wire 4 B train_exited [3:0] $end
$var wire 4 C train_detected [3:0] $end
$var wire 12 D crossing_states [11:0] $end
$var parameter 3 E BARRIER_DN $end
$var parameter 3 F COUNTDOWN $end
$var parameter 3 G EMERGENCY $end
$var parameter 3 H IDLE $end
$var parameter 3 I MAINTENANCE $end
$var parameter 32 J NUM_CROSSINGS $end
$var parameter 3 K TRAIN_PASS $end
$var parameter 3 L WARNING $end
$var reg 4 M alarm_sound [3:0] $end
$var reg 4 N barrier_down [3:0] $end
$var reg 4 O red_light [3:0] $end
$var reg 4 P yellow_light [3:0] $end
$var integer 32 Q i [31:0] $end
$scope begin crossing_fsms[0] $end
$var parameter 2 R j $end
$upscope $end
$scope begin crossing_fsms[1] $end
$var parameter 2 S j $end
$upscope $end
$scope begin crossing_fsms[2] $end
$var parameter 3 T j $end
$upscope $end
$scope begin crossing_fsms[3] $end
$var parameter 3 U j $end
$upscope $end
$upscope $end
$scope module sensor_fusion $end
$var wire 1 ' clk $end
$var wire 4 V ir_sensors [3:0] $end
$var wire 4 W rfid_signals [3:0] $end
$var wire 1 + rst_n $end
$var wire 4 X sensor_health [3:0] $end
$var wire 4 Y vib_sensors [3:0] $end
$var wire 2 Z weather_mode [1:0] $end
$var parameter 32 [ NUM_CROSSINGS $end
$var reg 4 \ ir_prev [3:0] $end
$var reg 4 ] train_detected [3:0] $end
$var reg 4 ^ train_exited [3:0] $end
$var integer 32 _ i [31:0] $end
$upscope $end
$scope module speed_est $end
$var wire 1 ' clk $end
$var wire 1 + rst_n $end
$var wire 4 ` train_detected [3:0] $end
$var wire 4 a train_exited [3:0] $end
$var parameter 32 b NUM_CROSSINGS $end
$var parameter 32 c TRAIN_LENGTH_BITS $end
$var reg 4 d speed_valid [3:0] $end
$var integer 32 e i [31:0] $end
$upscope $end
$scope module stats_eng $end
$var wire 4 f barrier_state [3:0] $end
$var wire 1 ' clk $end
$var wire 1 ( emergency_active $end
$var wire 1 + rst_n $end
$var wire 4 g train_presence [3:0] $end
$var wire 32 h total_penalty [31:0] $end
$var wire 32 i safety_penalty [31:0] $end
$var wire 8 j efficiency_score [7:0] $end
$var wire 32 k delay_penalty [31:0] $end
$var parameter 32 l NUM_CROSSINGS $end
$var reg 4 m prev_train_presence [3:0] $end
$var reg 32 n safety_violations [31:0] $end
$var reg 32 o total_delay_cycles [31:0] $end
$var reg 32 p violation_event_count [31:0] $end
$var integer 32 q i [31:0] $end
$upscope $end
$upscope $end
$scope task send_train $end
$var integer 32 r crossing [31:0] $end
$var integer 32 s duration [31:0] $end
$upscope $end
$upscope $end
$enddefinitions $end
$comment Show the parameter values. $end
$dumpall
b100 l
b10000 c
b100 b
b100 [
b11 U
b10 T
b1 S
b0 R
b1 L
b100 K
b100 J
b111 I
b0 H
b110 G
b10 F
b11 E
$end
#0
$dumpvars
bx s
bx r
bx q
b0 p
b0 o
b0 n
b0 m
b0 k
b1100100 j
b0 i
b0 h
b0 g
b0 f
b100 e
b0 d
b0 a
b0 `
b100 _
b0 ^
b0 ]
b0 \
b0 Z
b0 Y
b1111 X
b0 W
b0 V
b100 Q
b0 P
b0 O
b0 N
b0 M
b0 D
b0 C
b0 B
b0 A
b1111 @
b0 ?
b0 >
b0 =
b0 <
b1100100 ;
b110 :
b0 9
b0 8
b0 7
b0 6
b0 5
b0 4
b0 3
b0 2
b1111 1
b0 0
b0 /
b1100100 .
b0 -
b0 ,
0+
b0 *
b0 )
0(
0'
b0 &
b0 %
b110 $
b1100100 #
b0 "
b0 !
$end
#10000
b100 e
1'
#20000
0'
#30000
b100 e
1'
#40000
0'
#50000
b100 e
1'
#60000
0'
#70000
b100 e
1'
#80000
0'
#90000
b100 e
1'
#100000
b10110 $
b10110 :
b1 6
b1 C
b1 ]
b1 `
b1 g
b100 _
0'
b1 *
b1 0
b1 W
b1 ,
b1 2
b1 Y
b1 )
b1 /
b1 V
b111110100 s
b0 r
1+
#110000
b1 !
b1 4
b1 P
b1 \
b1 D
b1 m
b1 8
b1 n
b100 _
b100 e
b100 q
1'
#120000
0'
#130000
b10 8
b10 n
b100 q
b100 e
b100 _
1'
#140000
0'
#150000
b11 8
b11 n
b100 _
b100 e
b100 q
1'
#160000
0'
#170000
b100 8
b100 n
b100 q
b100 e
b100 _
1'
#180000
0'
#190000
b101 8
b101 n
b100 _
b100 e
b100 q
1'
#200000
0'
#210000
b110 8
b110 n
b100 q
b100 e
b100 _
1'
#220000
0'
#230000
b111 8
b111 n
b100 _
b100 e
b100 q
1'
#240000
0'
#250000
b1000 8
b1000 n
b100 q
b100 e
b100 _
1'
#260000
0'
#270000
b1001 8
b1001 n
b100 _
b100 e
b100 q
1'
#280000
0'
#290000
b1010 8
b1010 n
b100 q
b100 e
b100 _
1'
#300000
0'
#310000
b1011 8
b1011 n
b100 _
b100 e
b100 q
1'
#320000
0'
#330000
b1100 8
b1100 n
b100 q
b100 e
b100 _
1'
#340000
0'
#350000
b1101 8
b1101 n
b100 _
b100 e
b100 q
1'
#360000
0'
#370000
b1110 8
b1110 n
b100 q
b100 e
b100 _
1'
#380000
0'
#390000
b1111 8
b1111 n
b100 _
b100 e
b100 q
1'
#400000
0'
#410000
b10000 8
b10000 n
b100 q
b100 e
b100 _
1'
#420000
0'
#430000
b10001 8
b10001 n
b100 _
b100 e
b100 q
1'
#440000
0'
#450000
b10010 8
b10010 n
b100 q
b100 e
b100 _
1'
#460000
0'
#470000
b10011 8
b10011 n
b100 _
b100 e
b100 q
1'
#480000
0'
#490000
b10100 8
b10100 n
b100 q
b100 e
b100 _
1'
#500000
0'
#510000
b10101 8
b10101 n
b100 _
b100 e
b100 q
1'
#520000
0'
#530000
b10110 8
b10110 n
b100 q
b100 e
b100 _
1'
#540000
0'
#550000
b10111 8
b10111 n
b100 _
b100 e
b100 q
1'
#560000
0'
#570000
b11000 8
b11000 n
b100 q
b100 e
b100 _
1'
#580000
0'
#590000
b11001 8
b11001 n
b100 _
b100 e
b100 q
1'
#600000
0'
#610000
b11010 8
b11010 n
b100 q
b100 e
b100 _
1'
#620000
0'
#630000
b11011 8
b11011 n
b100 _
b100 e
b100 q
1'
#640000
0'
#650000
b11100 8
b11100 n
b100 q
b100 e
b100 _
1'
#660000
0'
#670000
b11101 8
b11101 n
b100 _
b100 e
b100 q
1'
#680000
0'
#690000
b11110 8
b11110 n
b100 q
b100 e
b100 _
1'
#700000
0'
#710000
b11111 8
b11111 n
b100 _
b100 e
b100 q
1'
#720000
0'
#730000
b100000 8
b100000 n
b100 q
b100 e
b100 _
1'
#740000
0'
#750000
b100001 8
b100001 n
b100 _
b100 e
b100 q
1'
#760000
0'
#770000
b100010 8
b100010 n
b100 q
b100 e
b100 _
1'
#780000
0'
#790000
b100011 8
b100011 n
b100 _
b100 e
b100 q
1'
#800000
0'
#810000
b100100 8
b100100 n
b100 q
b100 e
b100 _
1'
#820000
0'
#830000
b100101 8
b100101 n
b100 _
b100 e
b100 q
1'
#840000
0'
#850000
b100110 8
b100110 n
b100 q
b100 e
b100 _
1'
#860000
0'
#870000
b100111 8
b100111 n
b100 _
b100 e
b100 q
1'
#880000
0'
#890000
b101000 8
b101000 n
b100 q
b100 e
b100 _
1'
#900000
0'
#910000
b101001 8
b101001 n
b100 _
b100 e
b100 q
1'
#920000
0'
#930000
b101010 8
b101010 n
b100 q
b100 e
b100 _
1'
#940000
0'
#950000
b101011 8
b101011 n
b100 _
b100 e
b100 q
1'
#960000
0'
#970000
b101100 8
b101100 n
b100 q
b100 e
b100 _
1'
#980000
0'
#990000
b101101 8
b101101 n
b100 _
b100 e
b100 q
1'
#1000000
0'
#1010000
b101110 8
b101110 n
b100 q
b100 e
b100 _
1'
#1020000
0'
#1030000
b101111 8
b101111 n
b100 _
b100 e
b100 q
1'
#1040000
0'
#1050000
b110000 8
b110000 n
b100 q
b100 e
b100 _
1'
#1060000
0'
#1070000
b110001 8
b110001 n
b100 _
b100 e
b100 q
1'
#1080000
0'
#1090000
b1100011 #
b1100011 .
b1100011 ;
b1100011 j
b1 h
b1 i
b110010 8
b110010 n
b100 q
b100 e
b100 _
1'
#1100000
0'
#1110000
b110011 8
b110011 n
b100 _
b100 e
b100 q
1'
#1120000
0'
#1130000
b110100 8
b110100 n
b100 q
b100 e
b100 _
1'
#1140000
0'
#1150000
b0 !
b0 4
b0 P
b1 "
b1 9
b1 O
b10 D
b110101 8
b110101 n
b100 _
b100 e
b100 q
1'
#1160000
0'
#1170000
b110110 8
b110110 n
b100 q
b100 e
b100 _
1'
#1180000
0'
#1190000
b110111 8
b110111 n
b100 _
b100 e
b100 q
1'
#1200000
0'
#1210000
b111000 8
b111000 n
b100 q
b100 e
b100 _
1'
#1220000
0'
#1230000
b111001 8
b111001 n
b100 _
b100 e
b100 q
1'
#1240000
0'
#1250000
b111010 8
b111010 n
b100 q
b100 e
b100 _
1'
#1260000
0'
#1270000
b111011 8
b111011 n
b100 _
b100 e
b100 q
1'
#1280000
0'
#1290000
b111100 8
b111100 n
b100 q
b100 e
b100 _
1'
#1300000
0'
#1310000
b111101 8
b111101 n
b100 _
b100 e
b100 q
1'
#1320000
0'
#1330000
b111110 8
b111110 n
b100 q
b100 e
b100 _
1'
#1340000
0'
#1350000
b111111 8
b111111 n
b100 _
b100 e
b100 q
1'
#1360000
0'
#1370000
b1000000 8
b1000000 n
b100 q
b100 e
b100 _
1'
#1380000
0'
#1390000
b1000001 8
b1000001 n
b100 _
b100 e
b100 q
1'
#1400000
0'
#1410000
b1000010 8
b1000010 n
b100 q
b100 e
b100 _
1'
#1420000
0'
#1430000
b1000011 8
b1000011 n
b100 _
b100 e
b100 q
1'
#1440000
0'
#1450000
b1000100 8
b1000100 n
b100 q
b100 e
b100 _
1'
#1460000
0'
#1470000
b1000101 8
b1000101 n
b100 _
b100 e
b100 q
1'
#1480000
0'
#1490000
b1000110 8
b1000110 n
b100 q
b100 e
b100 _
1'
#1500000
0'
#1510000
b1000111 8
b1000111 n
b100 _
b100 e
b100 q
1'
#1520000
0'
#1530000
b1001000 8
b1001000 n
b100 q
b100 e
b100 _
1'
#1540000
0'
#1550000
b1001001 8
b1001001 n
b100 _
b100 e
b100 q
1'
#1560000
0'
#1570000
b1001010 8
b1001010 n
b100 q
b100 e
b100 _
1'
#1580000
0'
#1590000
b1001011 8
b1001011 n
b100 _
b100 e
b100 q
1'
#1600000
0'
#1610000
b1001100 8
b1001100 n
b100 q
b100 e
b100 _
1'
#1620000
0'
#1630000
b1001101 8
b1001101 n
b100 _
b100 e
b100 q
1'
#1640000
0'
#1650000
b1001110 8
b1001110 n
b100 q
b100 e
b100 _
1'
#1660000
0'
#1670000
b1001111 8
b1001111 n
b100 _
b100 e
b100 q
1'
#1680000
0'
#1690000
b1010000 8
b1010000 n
b100 q
b100 e
b100 _
1'
#1700000
0'
#1710000
b1010001 8
b1010001 n
b100 _
b100 e
b100 q
1'
#1720000
0'
#1730000
b1010010 8
b1010010 n
b100 q
b100 e
b100 _
1'
#1740000
0'
#1750000
b1010011 8
b1010011 n
b100 _
b100 e
b100 q
1'
#1760000
0'
#1770000
b1010100 8
b1010100 n
b100 q
b100 e
b100 _
1'
#1780000
0'
#1790000
b1010101 8
b1010101 n
b100 _
b100 e
b100 q
1'
#1800000
0'
#1810000
b1010110 8
b1010110 n
b100 q
b100 e
b100 _
1'
#1820000
0'
#1830000
b1010111 8
b1010111 n
b100 _
b100 e
b100 q
1'
#1840000
0'
#1850000
b1011000 8
b1011000 n
b100 q
b100 e
b100 _
1'
#1860000
0'
#1870000
b1011001 8
b1011001 n
b100 _
b100 e
b100 q
1'
#1880000
0'
#1890000
b1011010 8
b1011010 n
b100 q
b100 e
b100 _
1'
#1900000
0'
#1910000
b1011011 8
b1011011 n
b100 _
b100 e
b100 q
1'
#1920000
0'
#1930000
b1011100 8
b1011100 n
b100 q
b100 e
b100 _
1'
#1940000
0'
#1950000
b1011101 8
b1011101 n
b100 _
b100 e
b100 q
1'
#1960000
0'
#1970000
b1011110 8
b1011110 n
b100 q
b100 e
b100 _
1'
#1980000
0'
#1990000
b1011111 8
b1011111 n
b100 _
b100 e
b100 q
1'
#2000000
0'
#2010000
b1100000 8
b1100000 n
b100 q
b100 e
b100 _
1'
#2020000
0'
#2030000
b1100001 8
b1100001 n
b100 _
b100 e
b100 q
1'
#2040000
0'
#2050000
b1100010 8
b1100010 n
b100 q
b100 e
b100 _
1'
#2060000
0'
#2070000
b1100011 8
b1100011 n
b100 _
b100 e
b100 q
1'
#2080000
0'
#2090000
b1100010 #
b1100010 .
b1100010 ;
b1100010 j
b10 h
b10 i
b1100100 8
b1100100 n
b100 q
b100 e
b100 _
1'
#2100000
0'
#2110000
b1100101 8
b1100101 n
b100 _
b100 e
b100 q
1'
#2120000
0'
#2130000
b1100110 8
b1100110 n
b100 q
b100 e
b100 _
1'
#2140000
0'
#2150000
b1100111 8
b1100111 n
b100 _
b100 e
b100 q
1'
#2160000
0'
#2170000
b1101000 8
b1101000 n
b100 q
b100 e
b100 _
1'
#2180000
0'
#2190000
b1101001 8
b1101001 n
b100 _
b100 e
b100 q
1'
#2200000
0'
#2210000
b1101010 8
b1101010 n
b100 q
b100 e
b100 _
1'
#2220000
0'
#2230000
b1101011 8
b1101011 n
b100 _
b100 e
b100 q
1'
#2240000
0'
#2250000
b1101100 8
b1101100 n
b100 q
b100 e
b100 _
1'
#2260000
0'
#2270000
b1101101 8
b1101101 n
b100 _
b100 e
b100 q
1'
#2280000
0'
#2290000
b1101110 8
b1101110 n
b100 q
b100 e
b100 _
1'
#2300000
0'
#2310000
b1101111 8
b1101111 n
b100 _
b100 e
b100 q
1'
#2320000
0'
#2330000
b1110000 8
b1110000 n
b100 q
b100 e
b100 _
1'
#2340000
0'
#2350000
b1110001 8
b1110001 n
b100 _
b100 e
b100 q
1'
#2360000
0'
#2370000
b1110010 8
b1110010 n
b100 q
b100 e
b100 _
1'
#2380000
0'
#2390000
b1110011 8
b1110011 n
b100 _
b100 e
b100 q
1'
#2400000
0'
#2410000
b1110100 8
b1110100 n
b100 q
b100 e
b100 _
1'
#2420000
0'
#2430000
b1110101 8
b1110101 n
b100 _
b100 e
b100 q
1'
#2440000
0'
#2450000
b1110110 8
b1110110 n
b100 q
b100 e
b100 _
1'
#2460000
0'
#2470000
b1110111 8
b1110111 n
b100 _
b100 e
b100 q
1'
#2480000
0'
#2490000
b1111000 8
b1111000 n
b100 q
b100 e
b100 _
1'
#2500000
0'
#2510000
b1111001 8
b1111001 n
b100 _
b100 e
b100 q
1'
#2520000
0'
#2530000
b1111010 8
b1111010 n
b100 q
b100 e
b100 _
1'
#2540000
0'
#2550000
b1111011 8
b1111011 n
b100 _
b100 e
b100 q
1'
#2560000
0'
#2570000
b1111100 8
b1111100 n
b100 q
b100 e
b100 _
1'
#2580000
0'
#2590000
b1111101 8
b1111101 n
b100 _
b100 e
b100 q
1'
#2600000
0'
#2610000
b1111110 8
b1111110 n
b100 q
b100 e
b100 _
1'
#2620000
0'
#2630000
b1111111 8
b1111111 n
b100 _
b100 e
b100 q
1'
#2640000
0'
#2650000
b10000000 8
b10000000 n
b100 q
b100 e
b100 _
1'
#2660000
0'
#2670000
b10000001 8
b10000001 n
b100 _
b100 e
b100 q
1'
#2680000
0'
#2690000
b10000010 8
b10000010 n
b100 q
b100 e
b100 _
1'
#2700000
0'
#2710000
b10000011 8
b10000011 n
b100 _
b100 e
b100 q
1'
#2720000
0'
#2730000
b10000100 8
b10000100 n
b100 q
b100 e
b100 _
1'
#2740000
0'
#2750000
b10000101 8
b10000101 n
b100 _
b100 e
b100 q
1'
#2760000
0'
#2770000
b10000110 8
b10000110 n
b100 q
b100 e
b100 _
1'
#2780000
0'
#2790000
b10000111 8
b10000111 n
b100 _
b100 e
b100 q
1'
#2800000
0'
#2810000
b10001000 8
b10001000 n
b100 q
b100 e
b100 _
1'
#2820000
0'
#2830000
b10001001 8
b10001001 n
b100 _
b100 e
b100 q
1'
#2840000
0'
#2850000
b10001010 8
b10001010 n
b100 q
b100 e
b100 _
1'
#2860000
0'
#2870000
b10001011 8
b10001011 n
b100 _
b100 e
b100 q
1'
#2880000
0'
#2890000
b10001100 8
b10001100 n
b100 q
b100 e
b100 _
1'
#2900000
0'
#2910000
b10001101 8
b10001101 n
b100 _
b100 e
b100 q
1'
#2920000
0'
#2930000
b10001110 8
b10001110 n
b100 q
b100 e
b100 _
1'
#2940000
0'
#2950000
b10001111 8
b10001111 n
b100 _
b100 e
b100 q
1'
#2960000
0'
#2970000
b10010000 8
b10010000 n
b100 q
b100 e
b100 _
1'
#2980000
0'
#2990000
b10010001 8
b10010001 n
b100 _
b100 e
b100 q
1'
#3000000
0'
#3010000
b10010010 8
b10010010 n
b100 q
b100 e
b100 _
1'
#3020000
0'
#3030000
b10010011 8
b10010011 n
b100 _
b100 e
b100 q
1'
#3040000
0'
#3050000
b10010100 8
b10010100 n
b100 q
b100 e
b100 _
1'
#3060000
0'
#3070000
b10010101 8
b10010101 n
b100 _
b100 e
b100 q
1'
#3080000
0'
#3090000
b1100001 #
b1100001 .
b1100001 ;
b1100001 j
b11 h
b11 i
b10010110 8
b10010110 n
b100 q
b100 e
b100 _
1'
#3100000
0'
#3110000
b10010111 8
b10010111 n
b100 _
b100 e
b100 q
1'
#3120000
0'
#3130000
b10011000 8
b10011000 n
b100 q
b100 e
b100 _
1'
#3140000
0'
#3150000
b10011001 8
b10011001 n
b100 _
b100 e
b100 q
1'
#3160000
0'
#3170000
b10011010 8
b10011010 n
b100 q
b100 e
b100 _
1'
#3180000
0'
#3190000
b10011011 8
b10011011 n
b100 _
b100 e
b100 q
1'
#3200000
0'
#3210000
b10011100 8
b10011100 n
b100 q
b100 e
b100 _
1'
#3220000
0'
#3230000
b10011101 8
b10011101 n
b100 _
b100 e
b100 q
1'
#3240000
0'
#3250000
b10011110 8
b10011110 n
b100 q
b100 e
b100 _
1'
#3260000
0'
#3270000
b10011111 8
b10011111 n
b100 _
b100 e
b100 q
1'
#3280000
0'
#3290000
b10100000 8
b10100000 n
b100 q
b100 e
b100 _
1'
#3300000
0'
#3310000
b10100001 8
b10100001 n
b100 _
b100 e
b100 q
1'
#3320000
0'
#3330000
b10100010 8
b10100010 n
b100 q
b100 e
b100 _
1'
#3340000
0'
#3350000
b10100011 8
b10100011 n
b100 _
b100 e
b100 q
1'
#3360000
0'
#3370000
b10100100 8
b10100100 n
b100 q
b100 e
b100 _
1'
#3380000
0'
#3390000
b10100101 8
b10100101 n
b100 _
b100 e
b100 q
1'
#3400000
0'
#3410000
b10100110 8
b10100110 n
b100 q
b100 e
b100 _
1'
#3420000
0'
#3430000
b10100111 8
b10100111 n
b100 _
b100 e
b100 q
1'
#3440000
0'
#3450000
b10101000 8
b10101000 n
b100 q
b100 e
b100 _
1'
#3460000
0'
#3470000
b10101001 8
b10101001 n
b100 _
b100 e
b100 q
1'
#3480000
0'
#3490000
b10101010 8
b10101010 n
b100 q
b100 e
b100 _
1'
#3500000
0'
#3510000
b10101011 8
b10101011 n
b100 _
b100 e
b100 q
1'
#3520000
0'
#3530000
b10101100 8
b10101100 n
b100 q
b100 e
b100 _
1'
#3540000
0'
#3550000
b10101101 8
b10101101 n
b100 _
b100 e
b100 q
1'
#3560000
0'
#3570000
b10101110 8
b10101110 n
b100 q
b100 e
b100 _
1'
#3580000
0'
#3590000
b10101111 8
b10101111 n
b100 _
b100 e
b100 q
1'
#3600000
0'
#3610000
b10110000 8
b10110000 n
b100 q
b100 e
b100 _
1'
#3620000
0'
#3630000
b10110001 8
b10110001 n
b100 _
b100 e
b100 q
1'
#3640000
0'
#3650000
b10110010 8
b10110010 n
b100 q
b100 e
b100 _
1'
#3660000
0'
#3670000
b10110011 8
b10110011 n
b100 _
b100 e
b100 q
1'
#3680000
0'
#3690000
b10110100 8
b10110100 n
b100 q
b100 e
b100 _
1'
#3700000
0'
#3710000
b10110101 8
b10110101 n
b100 _
b100 e
b100 q
1'
#3720000
0'
#3730000
b10110110 8
b10110110 n
b100 q
b100 e
b100 _
1'
#3740000
0'
#3750000
b10110111 8
b10110111 n
b100 _
b100 e
b100 q
1'
#3760000
0'
#3770000
b10111000 8
b10111000 n
b100 q
b100 e
b100 _
1'
#3780000
0'
#3790000
b10111001 8
b10111001 n
b100 _
b100 e
b100 q
1'
#3800000
0'
#3810000
b10111010 8
b10111010 n
b100 q
b100 e
b100 _
1'
#3820000
0'
#3830000
b10111011 8
b10111011 n
b100 _
b100 e
b100 q
1'
#3840000
0'
#3850000
b10111100 8
b10111100 n
b100 q
b100 e
b100 _
1'
#3860000
0'
#3870000
b10111101 8
b10111101 n
b100 _
b100 e
b100 q
1'
#3880000
0'
#3890000
b10111110 8
b10111110 n
b100 q
b100 e
b100 _
1'
#3900000
0'
#3910000
b10111111 8
b10111111 n
b100 _
b100 e
b100 q
1'
#3920000
0'
#3930000
b11000000 8
b11000000 n
b100 q
b100 e
b100 _
1'
#3940000
0'
#3950000
b11000001 8
b11000001 n
b100 _
b100 e
b100 q
1'
#3960000
0'
#3970000
b11000010 8
b11000010 n
b100 q
b100 e
b100 _
1'
#3980000
0'
#3990000
b11000011 8
b11000011 n
b100 _
b100 e
b100 q
1'
#4000000
0'
#4010000
b11000100 8
b11000100 n
b100 q
b100 e
b100 _
1'
#4020000
0'
#4030000
b11000101 8
b11000101 n
b100 _
b100 e
b100 q
1'
#4040000
0'
#4050000
b11000110 8
b11000110 n
b100 q
b100 e
b100 _
1'
#4060000
0'
#4070000
b11000111 8
b11000111 n
b100 _
b100 e
b100 q
1'
#4080000
0'
#4090000
b1100000 #
b1100000 .
b1100000 ;
b1100000 j
b100 h
b100 i
b11001000 8
b11001000 n
b100 q
b100 e
b100 _
1'
#4100000
0'
#4110000
b11001001 8
b11001001 n
b100 _
b100 e
b100 q
1'
#4120000
0'
#4130000
b11001010 8
b11001010 n
b100 q
b100 e
b100 _
1'
#4140000
0'
#4150000
b11001011 8
b11001011 n
b100 _
b100 e
b100 q
1'
#4160000
0'
#4170000
b11001100 8
b11001100 n
b100 q
b100 e
b100 _
1'
#4180000
0'
#4190000
b11001101 8
b11001101 n
b100 _
b100 e
b100 q
1'
#4200000
0'
#4210000
b11001110 8
b11001110 n
b100 q
b100 e
b100 _
1'
#4220000
0'
#4230000
b11001111 8
b11001111 n
b100 _
b100 e
b100 q
1'
#4240000
0'
#4250000
b11010000 8
b11010000 n
b100 q
b100 e
b100 _
1'
#4260000
0'
#4270000
b11010001 8
b11010001 n
b100 _
b100 e
b100 q
1'
#4280000
0'
#4290000
b11010010 8
b11010010 n
b100 q
b100 e
b100 _
1'
#4300000
0'
#4310000
b11010011 8
b11010011 n
b100 _
b100 e
b100 q
1'
#4320000
0'
#4330000
b11010100 8
b11010100 n
b100 q
b100 e
b100 _
1'
#4340000
0'
#4350000
b11010101 8
b11010101 n
b100 _
b100 e
b100 q
1'
#4360000
0'
#4370000
b1 &
b1 =
b1 M
b1 %
b1 <
b1 N
b1 f
b11010110 8
b11010110 n
b11 D
b100 q
b100 e
b100 _
1'
#4380000
0'
#4390000
b100 _
b100 e
b100 q
1'
#4400000
0'
#4410000
b100 q
b100 e
b100 _
1'
#4420000
0'
#4430000
b100 _
b100 e
b100 q
1'
#4440000
0'
#4450000
b100 q
b100 e
b100 _
1'
#4460000
0'
#4470000
b100 _
b100 e
b100 q
1'
#4480000
0'
#4490000
b100 q
b100 e
b100 _
1'
#4500000
0'
#4510000
b100 _
b100 e
b100 q
1'
#4520000
0'
#4530000
b100 q
b100 e
b100 _
1'
#4540000
0'
#4550000
b100 _
b100 e
b100 q
1'
#4560000
0'
#4570000
b100 q
b100 e
b100 _
1'
#4580000
0'
#4590000
b100 _
b100 e
b100 q
1'
#4600000
0'
#4610000
b100 q
b100 e
b100 _
1'
#4620000
0'
#4630000
b100 _
b100 e
b100 q
1'
#4640000
0'
#4650000
b100 q
b100 e
b100 _
1'
#4660000
0'
#4670000
b100 _
b100 e
b100 q
1'
#4680000
0'
#4690000
b100 q
b100 e
b100 _
1'
#4700000
0'
#4710000
b100 _
b100 e
b100 q
1'
#4720000
0'
#4730000
b100 q
b100 e
b100 _
1'
#4740000
0'
#4750000
b100 _
b100 e
b100 q
1'
#4760000
0'
#4770000
b100 q
b100 e
b100 _
1'
#4780000
0'
#4790000
b100 _
b100 e
b100 q
1'
#4800000
0'
#4810000
b0 &
b0 =
b0 M
b100 D
b100 q
b100 e
b100 _
1'
#4820000
0'
#4830000
b100 _
b100 e
b100 q
1'
#4840000
0'
#4850000
b100 q
b100 e
b100 _
1'
#4860000
0'
#4870000
b100 _
b100 e
b100 q
1'
#4880000
0'
#4890000
b100 q
b100 e
b100 _
1'
#4900000
0'
#4910000
b100 _
b100 e
b100 q
1'
#4920000
0'
#4930000
b100 q
b100 e
b100 _
1'
#4940000
0'
#4950000
b100 _
b100 e
b100 q
1'
#4960000
0'
#4970000
b100 q
b100 e
b100 _
1'
#4980000
0'
#4990000
b100 _
b100 e
b100 q
1'
#5000000
0'
#5010000
b100 q
b100 e
b100 _
1'
#5020000
0'
#5030000
b100 _
b100 e
b100 q
1'
#5040000
0'
#5050000
b100 q
b100 e
b100 _
1'
#5060000
0'
#5070000
b100 _
b100 e
b100 q
1'
#5080000
0'
#5090000
b100 q
b100 e
b100 _
1'
#5100000
0'
#5110000
b100 _
b100 e
b100 q
1'
#5120000
0'
#5130000
b100 q
b100 e
b100 _
1'
#5140000
0'
#5150000
b100 _
b100 e
b100 q
1'
#5160000
0'
#5170000
b100 q
b100 e
b100 _
1'
#5180000
0'
#5190000
b100 _
b100 e
b100 q
1'
#5200000
0'
#5210000
b100 q
b100 e
b100 _
1'
#5220000
0'
#5230000
b100 _
b100 e
b100 q
1'
#5240000
0'
#5250000
b100 q
b100 e
b100 _
1'
#5260000
0'
#5270000
b100 _
b100 e
b100 q
1'
#5280000
0'
#5290000
b100 q
b100 e
b100 _
1'
#5300000
0'
#5310000
b100 _
b100 e
b100 q
1'
#5320000
0'
#5330000
b100 q
b100 e
b100 _
1'
#5340000
0'
#5350000
b100 _
b100 e
b100 q
1'
#5360000
0'
#5370000
b100 q
b100 e
b100 _
1'
#5380000
0'
#5390000
b100 _
b100 e
b100 q
1'
#5400000
0'
#5410000
b100 q
b100 e
b100 _
1'
#5420000
0'
#5430000
b100 _
b100 e
b100 q
1'
#5440000
0'
#5450000
b100 q
b100 e
b100 _
1'
#5460000
0'
#5470000
b100 _
b100 e
b100 q
1'
#5480000
0'
#5490000
b100 q
b100 e
b100 _
1'
#5500000
0'
#5510000
b100 _
b100 e
b100 q
1'
#5520000
0'
#5530000
b100 q
b100 e
b100 _
1'
#5540000
0'
#5550000
b100 _
b100 e
b100 q
1'
#5560000
0'
#5570000
b100 q
b100 e
b100 _
1'
#5580000
0'
#5590000
b100 _
b100 e
b100 q
1'
#5600000
0'
#5610000
b100 q
b100 e
b100 _
1'
#5620000
0'
#5630000
b100 _
b100 e
b100 q
1'
#5640000
0'
#5650000
b100 q
b100 e
b100 _
1'
#5660000
0'
#5670000
b100 _
b100 e
b100 q
1'
#5680000
0'
#5690000
b100 q
b100 e
b100 _
1'
#5700000
0'
#5710000
b100 _
b100 e
b100 q
1'
#5720000
0'
#5730000
b100 q
b100 e
b100 _
1'
#5740000
0'
#5750000
b100 _
b100 e
b100 q
1'
#5760000
0'
#5770000
b100 q
b100 e
b100 _
1'
#5780000
0'
#5790000
b100 _
b100 e
b100 q
1'
#5800000
0'
#5810000
b100 q
b100 e
b100 _
1'
#5820000
0'
#5830000
b100 _
b100 e
b100 q
1'
#5840000
0'
#5850000
b100 q
b100 e
b100 _
1'
#5860000
0'
#5870000
b100 _
b100 e
b100 q
1'
#5880000
0'
#5890000
b100 q
b100 e
b100 _
1'
#5900000
0'
#5910000
b100 _
b100 e
b100 q
1'
#5920000
0'
#5930000
b100 q
b100 e
b100 _
1'
#5940000
0'
